%YAML 1.1
%TAG !u! tag:unity3d.com,2011:
--- !u!29 &1
OcclusionCullingSettings:
  m_ObjectHideFlags: 0
  serializedVersion: 2
  m_OcclusionBakeSettings:
    smallestOccluder: 5
    smallestHole: 0.25
    backfaceThreshold: 100
  m_SceneGUID: 00000000000000000000000000000000
  m_OcclusionCullingData: {fileID: 0}
--- !u!104 &2
RenderSettings:
  m_ObjectHideFlags: 0
  serializedVersion: 9
  m_Fog: 0
  m_FogColor: {r: 0.5, g: 0.5, b: 0.5, a: 1}
  m_FogMode: 3
  m_FogDensity: 0.01
  m_LinearFogStart: 0
  m_LinearFogEnd: 300
  m_AmbientSkyColor: {r: 0.212, g: 0.227, b: 0.259, a: 1}
  m_AmbientEquatorColor: {r: 0.114, g: 0.125, b: 0.133, a: 1}
  m_AmbientGroundColor: {r: 0.047, g: 0.043, b: 0.035, a: 1}
  m_AmbientIntensity: 1
  m_AmbientMode: 0
  m_SubtractiveShadowColor: {r: 0.42, g: 0.478, b: 0.627, a: 1}
  m_SkyboxMaterial: {fileID: 10304, guid: 0000000000000000f000000000000000, type: 0}
  m_HaloStrength: 0.5
  m_FlareStrength: 1
  m_FlareFadeSpeed: 3
  m_HaloTexture: {fileID: 0}
  m_SpotCookie: {fileID: 10001, guid: 0000000000000000e000000000000000, type: 0}
  m_DefaultReflectionMode: 0
  m_DefaultReflectionResolution: 128
  m_ReflectionBounces: 1
  m_ReflectionIntensity: 1
  m_CustomReflection: {fileID: 0}
  m_Sun: {fileID: 0}
  m_IndirectSpecularColor: {r: 0.18028378, g: 0.22571412, b: 0.30692285, a: 1}
  m_UseRadianceAmbientProbe: 0
--- !u!157 &3
LightmapSettings:
  m_ObjectHideFlags: 0
  serializedVersion: 11
  m_GIWorkflowMode: 1
  m_GISettings:
    serializedVersion: 2
    m_BounceScale: 1
    m_IndirectOutputScale: 1
    m_AlbedoBoost: 1
    m_EnvironmentLightingMode: 0
    m_EnableBakedLightmaps: 1
    m_EnableRealtimeLightmaps: 0
  m_LightmapEditorSettings:
    serializedVersion: 12
    m_Resolution: 2
    m_BakeResolution: 40
    m_AtlasSize: 1024
    m_AO: 0
    m_AOMaxDistance: 1
    m_CompAOExponent: 1
    m_CompAOExponentDirect: 0
    m_ExtractAmbientOcclusion: 0
    m_Padding: 2
    m_LightmapParameters: {fileID: 0}
    m_LightmapsBakeMode: 1
    m_TextureCompression: 1
    m_FinalGather: 0
    m_FinalGatherFiltering: 1
    m_FinalGatherRayCount: 256
    m_ReflectionCompression: 2
    m_MixedBakeMode: 2
    m_BakeBackend: 1
    m_PVRSampling: 1
    m_PVRDirectSampleCount: 32
    m_PVRSampleCount: 512
    m_PVRBounces: 2
    m_PVREnvironmentSampleCount: 256
    m_PVREnvironmentReferencePointCount: 2048
    m_PVRFilteringMode: 1
    m_PVRDenoiserTypeDirect: 1
    m_PVRDenoiserTypeIndirect: 1
    m_PVRDenoiserTypeAO: 1
    m_PVRFilterTypeDirect: 0
    m_PVRFilterTypeIndirect: 0
    m_PVRFilterTypeAO: 0
    m_PVREnvironmentMIS: 1
    m_PVRCulling: 1
    m_PVRFilteringGaussRadiusDirect: 1
    m_PVRFilteringGaussRadiusIndirect: 5
    m_PVRFilteringGaussRadiusAO: 2
    m_PVRFilteringAtrousPositionSigmaDirect: 0.5
    m_PVRFilteringAtrousPositionSigmaIndirect: 2
    m_PVRFilteringAtrousPositionSigmaAO: 1
    m_ExportTrainingData: 0
    m_TrainingDataDestination: TrainingData
    m_LightProbeSampleCountMultiplier: 4
  m_LightingDataAsset: {fileID: 0}
  m_UseShadowmask: 1
--- !u!196 &4
NavMeshSettings:
  serializedVersion: 2
  m_ObjectHideFlags: 0
  m_BuildSettings:
    serializedVersion: 2
    agentTypeID: 0
    agentRadius: 0.5
    agentHeight: 2
    agentSlope: 45
    agentClimb: 0.4
    ledgeDropHeight: 0
    maxJumpAcrossDistance: 0
    minRegionArea: 2
    manualCellSize: 0
    cellSize: 0.16666667
    manualTileSize: 0
    tileSize: 256
    accuratePlacement: 0
    debug:
      m_Flags: 0
  m_NavMeshData: {fileID: 0}
--- !u!1001 &330494189
PrefabInstance:
  m_ObjectHideFlags: 0
  serializedVersion: 2
  m_Modification:
    m_TransformParent: {fileID: 0}
    m_Modifications:
    - target: {fileID: 3567574634928924437, guid: 4bef2d4c3fb538245816a1c7bb6187f9,
        type: 3}
      propertyPath: m_RootOrder
      value: 1
      objectReference: {fileID: 0}
    - target: {fileID: 3567574634928924437, guid: 4bef2d4c3fb538245816a1c7bb6187f9,
        type: 3}
      propertyPath: m_LocalPosition.x
      value: 23.880003
      objectReference: {fileID: 0}
    - target: {fileID: 3567574634928924437, guid: 4bef2d4c3fb538245816a1c7bb6187f9,
        type: 3}
      propertyPath: m_LocalPosition.y
      value: -1.7219996
      objectReference: {fileID: 0}
    - target: {fileID: 3567574634928924437, guid: 4bef2d4c3fb538245816a1c7bb6187f9,
        type: 3}
      propertyPath: m_LocalPosition.z
      value: -14
      objectReference: {fileID: 0}
    - target: {fileID: 3567574634928924437, guid: 4bef2d4c3fb538245816a1c7bb6187f9,
        type: 3}
      propertyPath: m_LocalRotation.w
      value: 0.8754261
      objectReference: {fileID: 0}
    - target: {fileID: 3567574634928924437, guid: 4bef2d4c3fb538245816a1c7bb6187f9,
        type: 3}
      propertyPath: m_LocalRotation.x
      value: 0.40821788
      objectReference: {fileID: 0}
    - target: {fileID: 3567574634928924437, guid: 4bef2d4c3fb538245816a1c7bb6187f9,
        type: 3}
      propertyPath: m_LocalRotation.y
      value: -0.23456968
      objectReference: {fileID: 0}
    - target: {fileID: 3567574634928924437, guid: 4bef2d4c3fb538245816a1c7bb6187f9,
        type: 3}
      propertyPath: m_LocalRotation.z
      value: 0.10938163
      objectReference: {fileID: 0}
    - target: {fileID: 3567574634928924437, guid: 4bef2d4c3fb538245816a1c7bb6187f9,
        type: 3}
      propertyPath: m_LocalEulerAnglesHint.x
      value: 50
      objectReference: {fileID: 0}
    - target: {fileID: 3567574634928924437, guid: 4bef2d4c3fb538245816a1c7bb6187f9,
        type: 3}
      propertyPath: m_LocalEulerAnglesHint.y
      value: -30
      objectReference: {fileID: 0}
    - target: {fileID: 3567574634928924437, guid: 4bef2d4c3fb538245816a1c7bb6187f9,
        type: 3}
      propertyPath: m_LocalEulerAnglesHint.z
      value: 0
      objectReference: {fileID: 0}
    - target: {fileID: 3567574634928924439, guid: 4bef2d4c3fb538245816a1c7bb6187f9,
        type: 3}
      propertyPath: m_Name
      value: Directional Light
      objectReference: {fileID: 0}
    m_RemovedComponents: []
  m_SourcePrefab: {fileID: 100100000, guid: 4bef2d4c3fb538245816a1c7bb6187f9, type: 3}
--- !u!1001 &761103650
PrefabInstance:
  m_ObjectHideFlags: 0
  serializedVersion: 2
  m_Modification:
    m_TransformParent: {fileID: 0}
    m_Modifications:
    - target: {fileID: 1869437210496316792, guid: 8a5a851aedaee4948ace13e71c662191,
        type: 3}
      propertyPath: m_RootOrder
      value: 3
      objectReference: {fileID: 0}
    - target: {fileID: 1869437210496316792, guid: 8a5a851aedaee4948ace13e71c662191,
        type: 3}
      propertyPath: m_LocalPosition.x
      value: 27.401434
      objectReference: {fileID: 0}
    - target: {fileID: 1869437210496316792, guid: 8a5a851aedaee4948ace13e71c662191,
        type: 3}
      propertyPath: m_LocalPosition.y
      value: -5.430053
      objectReference: {fileID: 0}
    - target: {fileID: 1869437210496316792, guid: 8a5a851aedaee4948ace13e71c662191,
        type: 3}
      propertyPath: m_LocalPosition.z
      value: -11.8556185
      objectReference: {fileID: 0}
    - target: {fileID: 1869437210496316792, guid: 8a5a851aedaee4948ace13e71c662191,
        type: 3}
      propertyPath: m_LocalRotation.w
      value: 1
      objectReference: {fileID: 0}
    - target: {fileID: 1869437210496316792, guid: 8a5a851aedaee4948ace13e71c662191,
        type: 3}
      propertyPath: m_LocalRotation.x
      value: -0
      objectReference: {fileID: 0}
    - target: {fileID: 1869437210496316792, guid: 8a5a851aedaee4948ace13e71c662191,
        type: 3}
      propertyPath: m_LocalRotation.y
      value: -0
      objectReference: {fileID: 0}
    - target: {fileID: 1869437210496316792, guid: 8a5a851aedaee4948ace13e71c662191,
        type: 3}
      propertyPath: m_LocalRotation.z
      value: -0
      objectReference: {fileID: 0}
    - target: {fileID: 1869437210496316792, guid: 8a5a851aedaee4948ace13e71c662191,
        type: 3}
      propertyPath: m_LocalEulerAnglesHint.x
      value: 0
      objectReference: {fileID: 0}
    - target: {fileID: 1869437210496316792, guid: 8a5a851aedaee4948ace13e71c662191,
        type: 3}
      propertyPath: m_LocalEulerAnglesHint.y
      value: 0
      objectReference: {fileID: 0}
    - target: {fileID: 1869437210496316792, guid: 8a5a851aedaee4948ace13e71c662191,
        type: 3}
      propertyPath: m_LocalEulerAnglesHint.z
      value: 0
      objectReference: {fileID: 0}
    - target: {fileID: 1869437210496316799, guid: 8a5a851aedaee4948ace13e71c662191,
        type: 3}
      propertyPath: m_Name
      value: world
      objectReference: {fileID: 0}
    m_RemovedComponents: []
  m_SourcePrefab: {fileID: 100100000, guid: 8a5a851aedaee4948ace13e71c662191, type: 3}
--- !u!1001 &772163970
PrefabInstance:
  m_ObjectHideFlags: 0
  serializedVersion: 2
  m_Modification:
    m_TransformParent: {fileID: 0}
    m_Modifications:
    - target: {fileID: 1862801106929506, guid: b4bc858163715f94f9b7c103bbd1281a, type: 3}
      propertyPath: m_Name
      value: WorldSpaceCanvas
      objectReference: {fileID: 0}
    - target: {fileID: 224002769913173030, guid: b4bc858163715f94f9b7c103bbd1281a,
        type: 3}
      propertyPath: m_Pivot.x
      value: 0.5
      objectReference: {fileID: 0}
    - target: {fileID: 224002769913173030, guid: b4bc858163715f94f9b7c103bbd1281a,
        type: 3}
      propertyPath: m_Pivot.y
      value: 0.5
      objectReference: {fileID: 0}
    - target: {fileID: 224002769913173030, guid: b4bc858163715f94f9b7c103bbd1281a,
        type: 3}
      propertyPath: m_RootOrder
      value: 4
      objectReference: {fileID: 0}
    - target: {fileID: 224002769913173030, guid: b4bc858163715f94f9b7c103bbd1281a,
        type: 3}
      propertyPath: m_AnchorMax.x
      value: 0.5
      objectReference: {fileID: 0}
    - target: {fileID: 224002769913173030, guid: b4bc858163715f94f9b7c103bbd1281a,
        type: 3}
      propertyPath: m_AnchorMax.y
      value: 0.5
      objectReference: {fileID: 0}
    - target: {fileID: 224002769913173030, guid: b4bc858163715f94f9b7c103bbd1281a,
        type: 3}
      propertyPath: m_AnchorMin.x
      value: 0.5
      objectReference: {fileID: 0}
    - target: {fileID: 224002769913173030, guid: b4bc858163715f94f9b7c103bbd1281a,
        type: 3}
      propertyPath: m_AnchorMin.y
      value: 0.5
      objectReference: {fileID: 0}
    - target: {fileID: 224002769913173030, guid: b4bc858163715f94f9b7c103bbd1281a,
        type: 3}
      propertyPath: m_SizeDelta.x
      value: 100
      objectReference: {fileID: 0}
    - target: {fileID: 224002769913173030, guid: b4bc858163715f94f9b7c103bbd1281a,
        type: 3}
      propertyPath: m_SizeDelta.y
      value: 100
      objectReference: {fileID: 0}
    - target: {fileID: 224002769913173030, guid: b4bc858163715f94f9b7c103bbd1281a,
        type: 3}
      propertyPath: m_LocalPosition.x
      value: 0
      objectReference: {fileID: 0}
    - target: {fileID: 224002769913173030, guid: b4bc858163715f94f9b7c103bbd1281a,
        type: 3}
      propertyPath: m_LocalPosition.y
      value: 0
      objectReference: {fileID: 0}
    - target: {fileID: 224002769913173030, guid: b4bc858163715f94f9b7c103bbd1281a,
        type: 3}
      propertyPath: m_LocalPosition.z
      value: 0
      objectReference: {fileID: 0}
    - target: {fileID: 224002769913173030, guid: b4bc858163715f94f9b7c103bbd1281a,
        type: 3}
      propertyPath: m_LocalRotation.w
      value: 1
      objectReference: {fileID: 0}
    - target: {fileID: 224002769913173030, guid: b4bc858163715f94f9b7c103bbd1281a,
        type: 3}
      propertyPath: m_LocalRotation.x
      value: 0
      objectReference: {fileID: 0}
    - target: {fileID: 224002769913173030, guid: b4bc858163715f94f9b7c103bbd1281a,
        type: 3}
      propertyPath: m_LocalRotation.y
      value: 0
      objectReference: {fileID: 0}
    - target: {fileID: 224002769913173030, guid: b4bc858163715f94f9b7c103bbd1281a,
        type: 3}
      propertyPath: m_LocalRotation.z
      value: 0
      objectReference: {fileID: 0}
    - target: {fileID: 224002769913173030, guid: b4bc858163715f94f9b7c103bbd1281a,
        type: 3}
      propertyPath: m_AnchoredPosition.x
      value: 0
      objectReference: {fileID: 0}
    - target: {fileID: 224002769913173030, guid: b4bc858163715f94f9b7c103bbd1281a,
        type: 3}
      propertyPath: m_AnchoredPosition.y
      value: 0
      objectReference: {fileID: 0}
    - target: {fileID: 224002769913173030, guid: b4bc858163715f94f9b7c103bbd1281a,
        type: 3}
      propertyPath: m_LocalEulerAnglesHint.x
      value: 0
      objectReference: {fileID: 0}
    - target: {fileID: 224002769913173030, guid: b4bc858163715f94f9b7c103bbd1281a,
        type: 3}
      propertyPath: m_LocalEulerAnglesHint.y
      value: 0
      objectReference: {fileID: 0}
    - target: {fileID: 224002769913173030, guid: b4bc858163715f94f9b7c103bbd1281a,
        type: 3}
      propertyPath: m_LocalEulerAnglesHint.z
      value: 0
      objectReference: {fileID: 0}
    m_RemovedComponents: []
  m_SourcePrefab: {fileID: 100100000, guid: b4bc858163715f94f9b7c103bbd1281a, type: 3}
--- !u!1001 &1014203593
PrefabInstance:
  m_ObjectHideFlags: 0
  serializedVersion: 2
  m_Modification:
    m_TransformParent: {fileID: 0}
    m_Modifications:
    - target: {fileID: 1181941937667950, guid: a2162b89ae7dba741af2b61e55ef6445, type: 3}
      propertyPath: m_Name
      value: MouseLock
      objectReference: {fileID: 0}
    - target: {fileID: 4424307484535160, guid: a2162b89ae7dba741af2b61e55ef6445, type: 3}
      propertyPath: m_RootOrder
      value: 2
      objectReference: {fileID: 0}
    - target: {fileID: 4424307484535160, guid: a2162b89ae7dba741af2b61e55ef6445, type: 3}
      propertyPath: m_LocalPosition.x
      value: 0
      objectReference: {fileID: 0}
    - target: {fileID: 4424307484535160, guid: a2162b89ae7dba741af2b61e55ef6445, type: 3}
      propertyPath: m_LocalPosition.y
      value: 0
      objectReference: {fileID: 0}
    - target: {fileID: 4424307484535160, guid: a2162b89ae7dba741af2b61e55ef6445, type: 3}
      propertyPath: m_LocalPosition.z
      value: 0
      objectReference: {fileID: 0}
    - target: {fileID: 4424307484535160, guid: a2162b89ae7dba741af2b61e55ef6445, type: 3}
      propertyPath: m_LocalRotation.w
      value: 1
      objectReference: {fileID: 0}
    - target: {fileID: 4424307484535160, guid: a2162b89ae7dba741af2b61e55ef6445, type: 3}
      propertyPath: m_LocalRotation.x
      value: 0
      objectReference: {fileID: 0}
    - target: {fileID: 4424307484535160, guid: a2162b89ae7dba741af2b61e55ef6445, type: 3}
      propertyPath: m_LocalRotation.y
      value: 0
      objectReference: {fileID: 0}
    - target: {fileID: 4424307484535160, guid: a2162b89ae7dba741af2b61e55ef6445, type: 3}
      propertyPath: m_LocalRotation.z
      value: 0
      objectReference: {fileID: 0}
    - target: {fileID: 4424307484535160, guid: a2162b89ae7dba741af2b61e55ef6445, type: 3}
      propertyPath: m_LocalEulerAnglesHint.x
      value: 0
      objectReference: {fileID: 0}
    - target: {fileID: 4424307484535160, guid: a2162b89ae7dba741af2b61e55ef6445, type: 3}
      propertyPath: m_LocalEulerAnglesHint.y
      value: 0
      objectReference: {fileID: 0}
    - target: {fileID: 4424307484535160, guid: a2162b89ae7dba741af2b61e55ef6445, type: 3}
      propertyPath: m_LocalEulerAnglesHint.z
      value: 0
      objectReference: {fileID: 0}
    m_RemovedComponents: []
  m_SourcePrefab: {fileID: 100100000, guid: a2162b89ae7dba741af2b61e55ef6445, type: 3}
--- !u!1001 &1073149515
PrefabInstance:
  m_ObjectHideFlags: 0
  serializedVersion: 2
  m_Modification:
    m_TransformParent: {fileID: 0}
    m_Modifications:
    - target: {fileID: 1571572952206120, guid: 144ca272df4906f4eb35a1b3d9755698, type: 3}
      propertyPath: m_Name
      value: 033_CameraRig_TeleportingInNavMesh
      objectReference: {fileID: 0}
    - target: {fileID: 4122883949921918, guid: 144ca272df4906f4eb35a1b3d9755698, type: 3}
      propertyPath: m_RootOrder
      value: 0
      objectReference: {fileID: 0}
    - target: {fileID: 4122883949921918, guid: 144ca272df4906f4eb35a1b3d9755698, type: 3}
      propertyPath: m_LocalPosition.x
      value: 0
      objectReference: {fileID: 0}
    - target: {fileID: 4122883949921918, guid: 144ca272df4906f4eb35a1b3d9755698, type: 3}
      propertyPath: m_LocalPosition.y
      value: 2
      objectReference: {fileID: 0}
    - target: {fileID: 4122883949921918, guid: 144ca272df4906f4eb35a1b3d9755698, type: 3}
      propertyPath: m_LocalPosition.z
      value: 0
      objectReference: {fileID: 0}
    - target: {fileID: 4122883949921918, guid: 144ca272df4906f4eb35a1b3d9755698, type: 3}
      propertyPath: m_LocalRotation.w
      value: 1
      objectReference: {fileID: 0}
    - target: {fileID: 4122883949921918, guid: 144ca272df4906f4eb35a1b3d9755698, type: 3}
      propertyPath: m_LocalRotation.x
      value: 0
      objectReference: {fileID: 0}
    - target: {fileID: 4122883949921918, guid: 144ca272df4906f4eb35a1b3d9755698, type: 3}
      propertyPath: m_LocalRotation.y
      value: 0
      objectReference: {fileID: 0}
    - target: {fileID: 4122883949921918, guid: 144ca272df4906f4eb35a1b3d9755698, type: 3}
      propertyPath: m_LocalRotation.z
      value: 0
      objectReference: {fileID: 0}
    - target: {fileID: 4122883949921918, guid: 144ca272df4906f4eb35a1b3d9755698, type: 3}
      propertyPath: m_LocalEulerAnglesHint.x
      value: 0
      objectReference: {fileID: 0}
    - target: {fileID: 4122883949921918, guid: 144ca272df4906f4eb35a1b3d9755698, type: 3}
      propertyPath: m_LocalEulerAnglesHint.y
      value: 0
      objectReference: {fileID: 0}
    - target: {fileID: 4122883949921918, guid: 144ca272df4906f4eb35a1b3d9755698, type: 3}
      propertyPath: m_LocalEulerAnglesHint.z
      value: 0
      objectReference: {fileID: 0}
    - target: {fileID: 224003348492131192, guid: 144ca272df4906f4eb35a1b3d9755698,
        type: 3}
      propertyPath: m_AnchorMax.y
      value: 0
      objectReference: {fileID: 0}
    - target: {fileID: 224003348492131192, guid: 144ca272df4906f4eb35a1b3d9755698,
        type: 3}
      propertyPath: m_AnchorMin.y
      value: 0
      objectReference: {fileID: 0}
    - target: {fileID: 224003348492131192, guid: 144ca272df4906f4eb35a1b3d9755698,
        type: 3}
      propertyPath: m_SizeDelta.x
      value: 0
      objectReference: {fileID: 0}
    - target: {fileID: 224003348492131192, guid: 144ca272df4906f4eb35a1b3d9755698,
        type: 3}
      propertyPath: m_SizeDelta.y
      value: 0
      objectReference: {fileID: 0}
    - target: {fileID: 224003348492131192, guid: 144ca272df4906f4eb35a1b3d9755698,
        type: 3}
      propertyPath: m_AnchoredPosition.x
      value: 0
      objectReference: {fileID: 0}
    - target: {fileID: 224003348492131192, guid: 144ca272df4906f4eb35a1b3d9755698,
        type: 3}
      propertyPath: m_AnchoredPosition.y
      value: 0
      objectReference: {fileID: 0}
    - target: {fileID: 224103443671506914, guid: 144ca272df4906f4eb35a1b3d9755698,
        type: 3}
      propertyPath: m_AnchorMax.y
      value: 0
      objectReference: {fileID: 0}
    - target: {fileID: 224103443671506914, guid: 144ca272df4906f4eb35a1b3d9755698,
        type: 3}
      propertyPath: m_AnchorMin.y
      value: 0
      objectReference: {fileID: 0}
    - target: {fileID: 224103443671506914, guid: 144ca272df4906f4eb35a1b3d9755698,
        type: 3}
      propertyPath: m_SizeDelta.x
      value: 0
      objectReference: {fileID: 0}
    - target: {fileID: 224103443671506914, guid: 144ca272df4906f4eb35a1b3d9755698,
        type: 3}
      propertyPath: m_SizeDelta.y
      value: 0
      objectReference: {fileID: 0}
    - target: {fileID: 224103443671506914, guid: 144ca272df4906f4eb35a1b3d9755698,
        type: 3}
      propertyPath: m_AnchoredPosition.x
      value: 0
      objectReference: {fileID: 0}
    - target: {fileID: 224103443671506914, guid: 144ca272df4906f4eb35a1b3d9755698,
        type: 3}
      propertyPath: m_AnchoredPosition.y
      value: 0
      objectReference: {fileID: 0}
    - target: {fileID: 224151081382032556, guid: 144ca272df4906f4eb35a1b3d9755698,
        type: 3}
      propertyPath: m_AnchorMax.y
      value: 0
      objectReference: {fileID: 0}
    - target: {fileID: 224151081382032556, guid: 144ca272df4906f4eb35a1b3d9755698,
        type: 3}
      propertyPath: m_AnchorMin.y
      value: 0
      objectReference: {fileID: 0}
    - target: {fileID: 224151081382032556, guid: 144ca272df4906f4eb35a1b3d9755698,
        type: 3}
      propertyPath: m_SizeDelta.x
      value: 0
      objectReference: {fileID: 0}
    - target: {fileID: 224151081382032556, guid: 144ca272df4906f4eb35a1b3d9755698,
        type: 3}
      propertyPath: m_SizeDelta.y
      value: 0
      objectReference: {fileID: 0}
    - target: {fileID: 224151081382032556, guid: 144ca272df4906f4eb35a1b3d9755698,
        type: 3}
      propertyPath: m_AnchoredPosition.x
      value: 0
      objectReference: {fileID: 0}
    - target: {fileID: 224151081382032556, guid: 144ca272df4906f4eb35a1b3d9755698,
        type: 3}
      propertyPath: m_AnchoredPosition.y
      value: 0
      objectReference: {fileID: 0}
    - target: {fileID: 224375272676366654, guid: 144ca272df4906f4eb35a1b3d9755698,
        type: 3}
      propertyPath: m_AnchorMax.y
      value: 0
      objectReference: {fileID: 0}
    - target: {fileID: 224375272676366654, guid: 144ca272df4906f4eb35a1b3d9755698,
        type: 3}
      propertyPath: m_AnchorMin.y
      value: 0
      objectReference: {fileID: 0}
    - target: {fileID: 224375272676366654, guid: 144ca272df4906f4eb35a1b3d9755698,
        type: 3}
      propertyPath: m_SizeDelta.x
      value: 0
      objectReference: {fileID: 0}
    - target: {fileID: 224375272676366654, guid: 144ca272df4906f4eb35a1b3d9755698,
        type: 3}
      propertyPath: m_SizeDelta.y
      value: 0
      objectReference: {fileID: 0}
    - target: {fileID: 224375272676366654, guid: 144ca272df4906f4eb35a1b3d9755698,
        type: 3}
      propertyPath: m_AnchoredPosition.x
      value: 0
      objectReference: {fileID: 0}
    - target: {fileID: 224375272676366654, guid: 144ca272df4906f4eb35a1b3d9755698,
        type: 3}
      propertyPath: m_AnchoredPosition.y
      value: 0
      objectReference: {fileID: 0}
    - target: {fileID: 224384599105535156, guid: 144ca272df4906f4eb35a1b3d9755698,
        type: 3}
      propertyPath: m_AnchorMax.y
      value: 0
      objectReference: {fileID: 0}
    - target: {fileID: 224384599105535156, guid: 144ca272df4906f4eb35a1b3d9755698,
        type: 3}
      propertyPath: m_AnchorMin.y
      value: 0
      objectReference: {fileID: 0}
    - target: {fileID: 224384599105535156, guid: 144ca272df4906f4eb35a1b3d9755698,
        type: 3}
      propertyPath: m_SizeDelta.x
      value: 0
      objectReference: {fileID: 0}
    - target: {fileID: 224384599105535156, guid: 144ca272df4906f4eb35a1b3d9755698,
        type: 3}
      propertyPath: m_SizeDelta.y
      value: 0
      objectReference: {fileID: 0}
    - target: {fileID: 224384599105535156, guid: 144ca272df4906f4eb35a1b3d9755698,
        type: 3}
      propertyPath: m_AnchoredPosition.x
      value: 0
      objectReference: {fileID: 0}
    - target: {fileID: 224384599105535156, guid: 144ca272df4906f4eb35a1b3d9755698,
        type: 3}
      propertyPath: m_AnchoredPosition.y
      value: 0
      objectReference: {fileID: 0}
    - target: {fileID: 224457664419405260, guid: 144ca272df4906f4eb35a1b3d9755698,
        type: 3}
      propertyPath: m_AnchorMax.y
      value: 0
      objectReference: {fileID: 0}
    - target: {fileID: 224457664419405260, guid: 144ca272df4906f4eb35a1b3d9755698,
        type: 3}
      propertyPath: m_AnchorMin.y
      value: 0
      objectReference: {fileID: 0}
    - target: {fileID: 224457664419405260, guid: 144ca272df4906f4eb35a1b3d9755698,
        type: 3}
      propertyPath: m_SizeDelta.x
      value: 0
      objectReference: {fileID: 0}
    - target: {fileID: 224457664419405260, guid: 144ca272df4906f4eb35a1b3d9755698,
        type: 3}
      propertyPath: m_SizeDelta.y
      value: 0
      objectReference: {fileID: 0}
    - target: {fileID: 224457664419405260, guid: 144ca272df4906f4eb35a1b3d9755698,
        type: 3}
      propertyPath: m_AnchoredPosition.x
      value: 0
      objectReference: {fileID: 0}
    - target: {fileID: 224457664419405260, guid: 144ca272df4906f4eb35a1b3d9755698,
        type: 3}
      propertyPath: m_AnchoredPosition.y
      value: 0
      objectReference: {fileID: 0}
    - target: {fileID: 224493798803071838, guid: 144ca272df4906f4eb35a1b3d9755698,
        type: 3}
      propertyPath: m_AnchorMax.y
      value: 0
      objectReference: {fileID: 0}
    - target: {fileID: 224493798803071838, guid: 144ca272df4906f4eb35a1b3d9755698,
        type: 3}
      propertyPath: m_AnchorMin.y
      value: 0
      objectReference: {fileID: 0}
    - target: {fileID: 224493798803071838, guid: 144ca272df4906f4eb35a1b3d9755698,
        type: 3}
      propertyPath: m_SizeDelta.x
      value: 0
      objectReference: {fileID: 0}
    - target: {fileID: 224493798803071838, guid: 144ca272df4906f4eb35a1b3d9755698,
        type: 3}
      propertyPath: m_SizeDelta.y
      value: 0
      objectReference: {fileID: 0}
    - target: {fileID: 224493798803071838, guid: 144ca272df4906f4eb35a1b3d9755698,
        type: 3}
      propertyPath: m_AnchoredPosition.x
      value: 0
      objectReference: {fileID: 0}
    - target: {fileID: 224493798803071838, guid: 144ca272df4906f4eb35a1b3d9755698,
        type: 3}
      propertyPath: m_AnchoredPosition.y
      value: 0
      objectReference: {fileID: 0}
    - target: {fileID: 224595017186808218, guid: 144ca272df4906f4eb35a1b3d9755698,
        type: 3}
      propertyPath: m_AnchorMax.y
      value: 0
      objectReference: {fileID: 0}
    - target: {fileID: 224595017186808218, guid: 144ca272df4906f4eb35a1b3d9755698,
        type: 3}
      propertyPath: m_AnchorMin.y
      value: 0
      objectReference: {fileID: 0}
    - target: {fileID: 224595017186808218, guid: 144ca272df4906f4eb35a1b3d9755698,
        type: 3}
      propertyPath: m_SizeDelta.x
      value: 0
      objectReference: {fileID: 0}
    - target: {fileID: 224595017186808218, guid: 144ca272df4906f4eb35a1b3d9755698,
        type: 3}
      propertyPath: m_SizeDelta.y
      value: 0
      objectReference: {fileID: 0}
    - target: {fileID: 224595017186808218, guid: 144ca272df4906f4eb35a1b3d9755698,
        type: 3}
      propertyPath: m_AnchoredPosition.x
      value: 0
      objectReference: {fileID: 0}
    - target: {fileID: 224595017186808218, guid: 144ca272df4906f4eb35a1b3d9755698,
        type: 3}
      propertyPath: m_AnchoredPosition.y
      value: 0
      objectReference: {fileID: 0}
    - target: {fileID: 224599299218036506, guid: 144ca272df4906f4eb35a1b3d9755698,
        type: 3}
      propertyPath: m_AnchorMax.y
      value: 0
      objectReference: {fileID: 0}
    - target: {fileID: 224599299218036506, guid: 144ca272df4906f4eb35a1b3d9755698,
        type: 3}
      propertyPath: m_AnchorMin.y
      value: 0
      objectReference: {fileID: 0}
    - target: {fileID: 224599299218036506, guid: 144ca272df4906f4eb35a1b3d9755698,
        type: 3}
      propertyPath: m_SizeDelta.x
      value: 0
      objectReference: {fileID: 0}
    - target: {fileID: 224599299218036506, guid: 144ca272df4906f4eb35a1b3d9755698,
        type: 3}
      propertyPath: m_SizeDelta.y
      value: 0
      objectReference: {fileID: 0}
    - target: {fileID: 224599299218036506, guid: 144ca272df4906f4eb35a1b3d9755698,
        type: 3}
      propertyPath: m_AnchoredPosition.x
      value: 0
      objectReference: {fileID: 0}
    - target: {fileID: 224599299218036506, guid: 144ca272df4906f4eb35a1b3d9755698,
        type: 3}
      propertyPath: m_AnchoredPosition.y
      value: 0
      objectReference: {fileID: 0}
    - target: {fileID: 224756782455245164, guid: 144ca272df4906f4eb35a1b3d9755698,
        type: 3}
      propertyPath: m_AnchorMax.y
      value: 0
      objectReference: {fileID: 0}
    - target: {fileID: 224756782455245164, guid: 144ca272df4906f4eb35a1b3d9755698,
        type: 3}
      propertyPath: m_AnchorMin.y
      value: 0
      objectReference: {fileID: 0}
    - target: {fileID: 224756782455245164, guid: 144ca272df4906f4eb35a1b3d9755698,
        type: 3}
      propertyPath: m_SizeDelta.x
      value: 0
      objectReference: {fileID: 0}
    - target: {fileID: 224756782455245164, guid: 144ca272df4906f4eb35a1b3d9755698,
        type: 3}
      propertyPath: m_SizeDelta.y
      value: 0
      objectReference: {fileID: 0}
    - target: {fileID: 224756782455245164, guid: 144ca272df4906f4eb35a1b3d9755698,
        type: 3}
      propertyPath: m_AnchoredPosition.x
      value: 0
      objectReference: {fileID: 0}
    - target: {fileID: 224756782455245164, guid: 144ca272df4906f4eb35a1b3d9755698,
        type: 3}
      propertyPath: m_AnchoredPosition.y
      value: 0
      objectReference: {fileID: 0}
    - target: {fileID: 224799608048520724, guid: 144ca272df4906f4eb35a1b3d9755698,
        type: 3}
      propertyPath: m_AnchorMax.y
      value: 0
      objectReference: {fileID: 0}
    - target: {fileID: 224799608048520724, guid: 144ca272df4906f4eb35a1b3d9755698,
        type: 3}
      propertyPath: m_AnchorMin.y
      value: 0
      objectReference: {fileID: 0}
    - target: {fileID: 224799608048520724, guid: 144ca272df4906f4eb35a1b3d9755698,
        type: 3}
      propertyPath: m_SizeDelta.x
      value: 0
      objectReference: {fileID: 0}
    - target: {fileID: 224799608048520724, guid: 144ca272df4906f4eb35a1b3d9755698,
        type: 3}
      propertyPath: m_SizeDelta.y
      value: 0
      objectReference: {fileID: 0}
    - target: {fileID: 224799608048520724, guid: 144ca272df4906f4eb35a1b3d9755698,
        type: 3}
      propertyPath: m_AnchoredPosition.x
      value: 0
      objectReference: {fileID: 0}
    - target: {fileID: 224799608048520724, guid: 144ca272df4906f4eb35a1b3d9755698,
        type: 3}
      propertyPath: m_AnchoredPosition.y
      value: 0
      objectReference: {fileID: 0}
    m_RemovedComponents: []
  m_SourcePrefab: {fileID: 100100000, guid: 144ca272df4906f4eb35a1b3d9755698, type: 3}
